9a352648c3c14417f35204bea09892337e633011a0e5122689b57e1fb6811717  tor-browser-linux64-7.5_ar.tar.xz
e912e496883d7b16ae352798942d57255ba9421039be203122ebb22e8d0d0ae0  tor-browser-linux64-7.5_de.tar.xz
67735b807da20fc3a94978f40c39d034d33c74310ea75622cdf91f09cbc648c5  tor-browser-linux64-7.5_en-US.tar.xz
e65905673adb771b8f41afa3dba08ff2cf48f602b4f879fb16e90ff5e5befe2b  tor-browser-linux64-7.5_es-ES.tar.xz
e29c19684578a0c513893323d66e2a841a41c4f55014c0fa8cd5f673f5cd1504  tor-browser-linux64-7.5_fa.tar.xz
426d2fc15e175e496a2691e268a14804a726354dacbe6ad72e9a3aa41e9c0344  tor-browser-linux64-7.5_fr.tar.xz
f1a78c96a30dfc16b8384081c56d75cdfc82c2f760b70f599f98d294e69b278e  tor-browser-linux64-7.5_it.tar.xz
da5949bcde576477f0d3c4a4b2dac1f6a6866598efb27c20cd2e3f30b7204b12  tor-browser-linux64-7.5_ja.tar.xz
07e17268e846f6c8bfc4df904c32bb670822d819305e2f51affd25bf617c3bde  tor-browser-linux64-7.5_ko.tar.xz
24d25555d25ebaeabfd83217dc6eddce3504a06b0576cb89689e0d1c86cd989a  tor-browser-linux64-7.5_nl.tar.xz
f1f8fd6d4a27fb3f7101abfd72834b85c68a8b475091f186334e537d62b7348a  tor-browser-linux64-7.5_pl.tar.xz
9990057d875f07d824528089a64282e49511714675edc3874781153bf86798eb  tor-browser-linux64-7.5_pt-BR.tar.xz
79a56cf3049b00561c87c6b95edc2edc27b9743a4d30fbd8a56225e2552bc201  tor-browser-linux64-7.5_ru.tar.xz
7b61708fbbdaa726019d6f2f10ba5e9e110b8b28a0a9e7a68a3e1214837f4104  tor-browser-linux64-7.5_tr.tar.xz
57d972aeaf3b74002df69aa25c12da62b4bf5b53ac6189768e88bbed3375715f  tor-browser-linux64-7.5_vi.tar.xz
6b82bf8bbb8a65e7142420c8625ad478635092efaa61f5a46c1e5eb42dd836c8  tor-browser-linux64-7.5_zh-CN.tar.xz
